srcs/tests/icarus/TB_top.vcd
$date
	Wed Jun  8 20:25:21 2022
$end
$version
	Icarus Verilog
$end
$timescale
	100us
$end
$scope module TB_Top $end
$var reg 1 ! clk $end
$var reg 32 " clk_count [31:0] $end
$var reg 1 # rst $end
$scope module UUT $end
$var wire 1 ! i_clk $end
$var wire 1 # i_rst $end
$var wire 5 $ w_rd [4:0] $end
$var wire 1 % w_en_regfile_write $end
$var wire 7 & opcode [6:0] $end
$var wire 1 ' mux_pc_src $end
$var wire 1 ( mux_pc_adder_src $end
$var wire 3 ) mux_immext_src [2:0] $end
$var wire 2 * mux_final_result_src [1:0] $end
$var wire 1 + mux_alu_src_b $end
$var wire 1 , mux_alu_src_a $end
$var wire 2 - mux_alu_forward_src_b [1:0] $end
$var wire 2 . mux_alu_forward_src_a [1:0] $end
$var wire 2 / mask_type [1:0] $end
$var wire 5 0 m_rd [4:0] $end
$var wire 2 1 m_mux_final_result_src [1:0] $end
$var wire 1 2 m_en_regfile_write $end
$var wire 1 3 funct7_b5 $end
$var wire 3 4 funct3 [2:0] $end
$var wire 1 5 fd_stall $end
$var wire 1 6 fd_clr $end
$var wire 1 7 f_stall $end
$var wire 1 8 ext_type $end
$var wire 1 9 en_regfile_write $end
$var wire 1 : en_datamem_write $end
$var wire 5 ; e_rs2 [4:0] $end
$var wire 5 < e_rs1 [4:0] $end
$var wire 5 = e_rd [4:0] $end
$var wire 2 > e_mux_final_result_src [1:0] $end
$var wire 1 ? de_clr $end
$var wire 5 @ d_rs2 [4:0] $end
$var wire 5 A d_rs1 [4:0] $end
$var wire 1 B d_mux_alu_src_b $end
$var wire 1 C d_mux_alu_src_a $end
$var wire 4 D alu_flags [3:0] $end
$var wire 4 E alu_control [3:0] $end
$scope module controlPipeline $end
$var wire 3 F d_funct3 [2:0] $end
$var wire 1 ! i_clk $end
$var wire 1 # i_rst $end
$var wire 4 G o_alu_control [3:0] $end
$var wire 1 C o_d_mux_alu_src_a $end
$var wire 1 B o_d_mux_alu_src_b $end
$var wire 2 H o_e_mux_final_result_src [1:0] $end
$var wire 1 : o_en_datamem_write $end
$var wire 1 9 o_en_regfile_write $end
$var wire 1 8 o_ext_type $end
$var wire 1 2 o_m_en_regfile_write $end
$var wire 2 I o_m_mux_final_result_src [1:0] $end
$var wire 2 J o_mask_type [1:0] $end
$var wire 1 , o_mux_alu_src_a $end
$var wire 1 + o_mux_alu_src_b $end
$var wire 2 K o_mux_final_result_src [1:0] $end
$var wire 1 ( o_mux_pc_adder_src $end
$var wire 1 % o_w_en_regfile_write $end
$var wire 1 ' o_mux_pc_src $end
$var wire 3 L o_mux_immext_src [2:0] $end
$var wire 7 M i_opcode [6:0] $end
$var wire 1 3 i_funct7_b5 $end
$var wire 3 N i_funct3 [2:0] $end
$var wire 1 ? i_de_clr $end
$var wire 4 O i_alu_flags [3:0] $end
$var wire 1 P d_mux_pc_adder_src $end
$var wire 2 Q d_mux_final_result_src [1:0] $end
$var wire 1 R d_mux_alu_src_b $end
$var wire 1 S d_mux_alu_src_a $end
$var wire 2 T d_mask_type [1:0] $end
$var wire 1 U d_jump $end
$var wire 1 V d_ext_type $end
$var wire 1 W d_en_regfile_write $end
$var wire 1 X d_en_datamem_write $end
$var wire 1 Y d_branch $end
$var wire 4 Z d_alu_control [3:0] $end
$var reg 4 [ e_alu_control [3:0] $end
$var reg 1 \ e_branch $end
$var reg 1 ] e_en_datamem_write $end
$var reg 1 ^ e_en_regfile_write $end
$var reg 1 _ e_ext_type $end
$var reg 3 ` e_funct3 [2:0] $end
$var reg 1 a e_jump $end
$var reg 2 b e_mask_type [1:0] $end
$var reg 1 , e_mux_alu_src_a $end
$var reg 1 + e_mux_alu_src_b $end
$var reg 2 c e_mux_final_result_src [1:0] $end
$var reg 1 ( e_mux_pc_adder_src $end
$var reg 1 d m_en_datamem_write $end
$var reg 1 e m_en_regfile_write $end
$var reg 1 f m_ext_type $end
$var reg 2 g m_mask_type [1:0] $end
$var reg 2 h m_mux_final_result_src [1:0] $end
$var reg 1 i w_en_regfile_write $end
$var reg 2 j w_mux_final_result_src [1:0] $end
$scope module branchDecoder $end
$var wire 1 \ branch $end
$var wire 3 k funct3 [2:0] $end
$var wire 1 a jump $end
$var wire 1 ' pc_src $end
$var wire 1 l zero $end
$var wire 1 m overflow $end
$var wire 1 n neg $end
$var wire 1 o carry $end
$var wire 4 p alu_flags [3:0] $end
$var reg 1 q branch_o $end
$upscope $end
$scope module controlBlock $end
$var wire 1 P o_mux_pc_adder_src $end
$var wire 3 r o_mux_immext_src [2:0] $end
$var wire 2 s o_mux_final_result_src [1:0] $end
$var wire 1 R o_mux_alu_src_b $end
$var wire 1 S o_mux_alu_src_a $end
$var wire 2 t o_mask_type [1:0] $end
$var wire 1 U o_jump $end
$var wire 1 V o_ext_type $end
$var wire 1 W o_en_regfile_write $end
$var wire 1 X o_en_datamem_write $end
$var wire 1 Y o_branch $end
$var wire 4 u o_alu_control [3:0] $end
$var wire 7 v i_opcode [6:0] $end
$var wire 1 3 i_funct7_b5 $end
$var wire 3 w i_funct3 [2:0] $end
$var wire 2 x ALUOp [1:0] $end
$scope module aluDecoder $end
$var wire 1 y RtypeSub $end
$var wire 1 z op_b5 $end
$var wire 1 3 funct7_b5 $end
$var wire 3 { funct3 [2:0] $end
$var wire 2 | alu_op [1:0] $end
$var reg 4 } alu_control [3:0] $end
$upscope $end
$scope module dataMaskDecoder $end
$var wire 2 ~ mask_type [1:0] $end
$var wire 3 !" funct3 [2:0] $end
$var wire 1 V ext_type $end
$upscope $end
$scope module opcodeDecoder $end
$var wire 7 "" op [6:0] $end
$var wire 2 #" ResultSrc [1:0] $end
$var wire 1 W RegWrite $end
$var wire 1 P PCAdderSrc $end
$var wire 1 X MemWrite $end
$var wire 1 U Jump $end
$var wire 3 $" ImmSrc [2:0] $end
$var wire 1 Y Branch $end
$var wire 1 R ALUSrcB $end
$var wire 1 S ALUSrcA $end
$var wire 2 %" ALUOp [1:0] $end
$var reg 14 &" controls [13:0] $end
$upscope $end
$upscope $end
$scope begin d2e $end
$upscope $end
$scope begin e2m $end
$upscope $end
$scope begin m2w $end
$upscope $end
$upscope $end
$scope module dataPipeline $end
$var wire 32 '" e_rd1 [31:0] $end
$var wire 32 (" e_rd2 [31:0] $end
$var wire 4 )" i_alu_control [3:0] $end
$var wire 1 ! i_clk $end
$var wire 1 : i_en_datamem_write $end
$var wire 1 9 i_en_regfile_write $end
$var wire 1 8 i_ext_type $end
$var wire 1 *" i_f_en_pc $end
$var wire 1 +" i_fd_en $end
$var wire 2 ," i_mask_type [1:0] $end
$var wire 1 , i_mux_alu_src_a $end
$var wire 1 + i_mux_alu_src_b $end
$var wire 2 -" i_mux_final_result_src [1:0] $end
$var wire 3 ." i_mux_immext_src [2:0] $end
$var wire 1 ( i_mux_pc_adder_src $end
$var wire 1 ' i_mux_pc_src $end
$var wire 1 # i_rst $end
$var wire 5 /" o_d_rs1 [4:0] $end
$var wire 5 0" o_d_rs2 [4:0] $end
$var wire 5 1" o_e_rd [4:0] $end
$var wire 5 2" o_e_rs1 [4:0] $end
$var wire 5 3" o_e_rs2 [4:0] $end
$var wire 5 4" o_m_rd [4:0] $end
$var wire 5 5" o_w_rd [4:0] $end
$var wire 32 6" w_final_result [31:0] $end
$var wire 32 7" pc_adder_result [31:0] $end
$var wire 7 8" o_opcode [6:0] $end
$var wire 1 3 o_funct7_b5 $end
$var wire 3 9" o_funct3 [2:0] $end
$var wire 4 :" o_alu_flags [3:0] $end
$var wire 32 ;" m_memory_readout [31:0] $end
$var wire 2 <" i_mux_alu_forward_src_b [1:0] $end
$var wire 2 =" i_mux_alu_forward_src_a [1:0] $end
$var wire 1 6 i_fd_clr $end
$var wire 1 ? i_de_clr $end
$var wire 32 >" f_pc_p_4 [31:0] $end
$var wire 32 ?" f_pc [31:0] $end
$var wire 32 @" f_instr [31:0] $end
$var wire 32 A" e_mem_data [31:0] $end
$var wire 32 B" e_alu_result [31:0] $end
$var wire 5 C" d_rs2 [4:0] $end
$var wire 5 D" d_rs1 [4:0] $end
$var wire 32 E" d_rd2 [31:0] $end
$var wire 32 F" d_rd1 [31:0] $end
$var wire 5 G" d_rd [4:0] $end
$var wire 32 H" d_immext [31:0] $end
$var reg 32 I" d_instr [31:0] $end
$var reg 32 J" d_pc [31:0] $end
$var reg 32 K" d_pc_p_4 [31:0] $end
$var reg 32 L" e_immext [31:0] $end
$var reg 32 M" e_pc [31:0] $end
$var reg 32 N" e_pc_p_4 [31:0] $end
$var reg 5 O" e_rd [4:0] $end
$var reg 5 P" e_rs1 [4:0] $end
$var reg 5 Q" e_rs2 [4:0] $end
$var reg 32 R" m_alu_result [31:0] $end
$var reg 32 S" m_immext [31:0] $end
$var reg 32 T" m_mem_data [31:0] $end
$var reg 32 U" m_pc_p_4 [31:0] $end
$var reg 5 V" m_rd [4:0] $end
$var reg 32 W" w_alu_result [31:0] $end
$var reg 32 X" w_immext [31:0] $end
$var reg 32 Y" w_memory_readout [31:0] $end
$var reg 32 Z" w_pc_p_4 [31:0] $end
$var reg 5 [" w_rd [4:0] $end
$scope module dataDecodeStageBlock $end
$var wire 1 ! i_clk $end
$var wire 32 \" i_d_instr [31:0] $end
$var wire 1 9 i_en_regfile_write $end
$var wire 3 ]" i_mux_immext_src [2:0] $end
$var wire 5 ^" i_result_addr [4:0] $end
$var wire 32 _" o_rd2 [31:0] $end
$var wire 32 `" o_rd1 [31:0] $end
$var wire 32 a" o_immext [31:0] $end
$var wire 32 b" i_final_result [31:0] $end
$scope module immExtender $end
$var wire 25 c" i_instr [31:7] $end
$var wire 3 d" i_mux_immext_src [2:0] $end
$var reg 32 e" o_immext [31:0] $end
$upscope $end
$scope module registerFile $end
$var wire 5 f" i_a1 [4:0] $end
$var wire 5 g" i_a2 [4:0] $end
$var wire 5 h" i_a3 [4:0] $end
$var wire 1 ! i_clk $end
$var wire 1 9 i_we3 $end
$var wire 32 i" i_wd3 [31:0] $end
$var reg 32 j" o_rd1 [31:0] $end
$var reg 32 k" o_rd2 [31:0] $end
$scope begin $ivl_for_loop3 $end
$var integer 32 l" i [31:0] $end
$upscope $end
$upscope $end
$upscope $end
$scope module dataExecStageBlock $end
$var wire 4 m" i_alu_control [3:0] $end
$var wire 1 ! i_clk $end
$var wire 32 n" i_immext [31:0] $end
$var wire 32 o" i_m_e_foward_data_alu [31:0] $end
$var wire 32 p" i_m_e_foward_data_immext [31:0] $end
$var wire 1 , i_mux_alu_src_a $end
$var wire 1 + i_mux_alu_src_b $end
$var wire 1 ( i_mux_pc_adder_src $end
$var wire 32 q" i_pc [31:0] $end
$var wire 32 r" i_rd1 [31:0] $end
$var wire 32 s" i_rd2 [31:0] $end
$var wire 32 t" o_memory_data [31:0] $end
$var wire 32 u" pc_adder_src [31:0] $end
$var wire 32 v" o_pc_adder_result [31:0] $end
$var wire 32 w" o_alu_result [31:0] $end
$var wire 4 x" o_alu_flags [3:0] $end
$var wire 32 y" i_w_e_foward_data [31:0] $end
$var wire 2 z" i_mux_alu_forward_src_b [1:0] $end
$var wire 2 {" i_mux_alu_forward_src_a [1:0] $end
$var wire 32 |" forward_b [31:0] $end
$var wire 32 }" forward_a [31:0] $end
$var wire 32 ~" alu_src_b [31:0] $end
$var wire 32 !# alu_src_a [31:0] $end
$scope module alu $end
$var wire 1 "# carry $end
$var wire 4 ## i_alu_control [3:0] $end
$var wire 1 $# isAddSub $end
$var wire 1 %# isSub $end
$var wire 1 &# neg $end
$var wire 1 '# overflow $end
$var wire 1 (# zero $end
$var wire 33 )# sum [32:0] $end
$var wire 4 *# o_alu_flags [3:0] $end
$var wire 32 +# i_b [31:0] $end
$var wire 32 ,# i_a [31:0] $end
$var wire 32 -# condinvb [31:0] $end
$var reg 32 .# o_result [31:0] $end
$upscope $end
$scope module mux_alu_src_a $end
$var wire 32 /# i_d1 [31:0] $end
$var wire 1 , i_s $end
$var wire 32 0# o_y [31:0] $end
$var wire 32 1# i_d0 [31:0] $end
$upscope $end
$scope module mux_alu_src_b $end
$var wire 32 2# i_d1 [31:0] $end
$var wire 1 + i_s $end
$var wire 32 3# o_y [31:0] $end
$var wire 32 4# i_d0 [31:0] $end
$upscope $end
$scope module mux_forward_alu_src_a $end
$var wire 32 5# i_d0 [31:0] $end
$var wire 32 6# i_d2 [31:0] $end
$var wire 32 7# i_d3 [31:0] $end
$var wire 2 8# i_s [1:0] $end
$var wire 32 9# i_d1 [31:0] $end
$var reg 32 :# o_y [31:0] $end
$scope begin sel $end
$upscope $end
$upscope $end
$scope module mux_forward_alu_src_b $end
$var wire 32 ;# i_d0 [31:0] $end
$var wire 32 <# i_d2 [31:0] $end
$var wire 32 =# o_y [31:0] $end
$var wire 2 ># i_s [1:0] $end
$var wire 32 ?# i_d1 [31:0] $end
$upscope $end
$scope module mux_pc_adder_src $end
$var wire 32 @# i_d0 [31:0] $end
$var wire 32 A# i_d1 [31:0] $end
$var wire 1 ( i_s $end
$var wire 32 B# o_y [31:0] $end
$upscope $end
$upscope $end
$scope module dataFetchStageBlock $end
$var wire 1 ! i_clk $end
$var wire 1 *" i_f_en_pc $end
$var wire 1 ' i_mux_pc_src $end
$var wire 32 C# i_pc_ext_addr [31:0] $end
$var wire 1 # i_rst $end
$var wire 32 D# o_pc_p_4 [31:0] $end
$var wire 32 E# o_instr [31:0] $end
$var reg 32 F# o_pc [31:0] $end
$scope module instrMemory $end
$var wire 32 G# i_a [31:0] $end
$var wire 32 H# o_rd [31:0] $end
$scope begin $ivl_for_loop1 $end
$var integer 32 I# i [31:0] $end
$upscope $end
$scope begin $ivl_for_loop2 $end
$var integer 32 J# i [31:0] $end
$upscope $end
$upscope $end
$upscope $end
$scope module dataMemStageBlock $end
$var wire 32 K# i_alu_result [31:0] $end
$var wire 1 ! i_clk $end
$var wire 1 8 i_ext_type $end
$var wire 2 L# i_mask_type [1:0] $end
$var wire 32 M# i_memory_data [31:0] $end
$var wire 1 : i_we $end
$var wire 32 N# o_memory_readout [31:0] $end
$scope module dataMemory $end
$var wire 32 O# i_addr [31:0] $end
$var wire 1 ! i_clk $end
$var wire 1 8 i_ext_type $end
$var wire 2 P# i_mask_type [1:0] $end
$var wire 32 Q# i_wd [31:0] $end
$var wire 1 : i_we $end
$var wire 32 R# i_addr_p3 [31:0] $end
$var wire 32 S# i_addr_p2 [31:0] $end
$var wire 32 T# i_addr_p1 [31:0] $end
$var reg 32 U# o_rd [31:0] $end
$scope begin $ivl_for_loop4 $end
$var integer 32 V# i [31:0] $end
$upscope $end
$upscope $end
$upscope $end
$scope module dataWritebackStageBlock $end
$var wire 32 W# i_alu_result [31:0] $end
$var wire 32 X# i_immext [31:0] $end
$var wire 32 Y# i_memory_readout [31:0] $end
$var wire 2 Z# i_mux_final_result_src [1:0] $end
$var wire 32 [# i_pc_p_4 [31:0] $end
$var wire 32 \# o_wb [31:0] $end
$scope module wb_mux $end
$var wire 32 ]# i_d0 [31:0] $end
$var wire 32 ^# i_d1 [31:0] $end
$var wire 32 _# i_d2 [31:0] $end
$var wire 32 `# i_d3 [31:0] $end
$var wire 2 a# i_s [1:0] $end
$var reg 32 b# o_y [31:0] $end
$scope begin sel $end
$upscope $end
$upscope $end
$upscope $end
$scope begin d2e $end
$upscope $end
$scope begin e2m $end
$upscope $end
$scope begin f2d $end
$upscope $end
$scope begin m2w $end
$upscope $end
$upscope $end
$scope module hazardBlock $end
$var wire 1 c# _branch_flush $end
$var wire 1 C i_ctrl_d_mux_alu_src_a $end
$var wire 1 B i_ctrl_d_mux_alu_src_b $end
$var wire 2 d# i_ctrl_e_mux_final_result_src [1:0] $end
$var wire 1 ' i_ctrl_e_mux_pc_src $end
$var wire 1 2 i_ctrl_m_en_regfile_write $end
$var wire 2 e# i_ctrl_m_mux_final_result_src [1:0] $end
$var wire 1 % i_ctrl_w_en_regfile_write $end
$var wire 5 f# i_data_d_rs1 [4:0] $end
$var wire 5 g# i_data_d_rs2 [4:0] $end
$var wire 5 h# i_data_e_rd [4:0] $end
$var wire 5 i# i_data_e_rs1 [4:0] $end
$var wire 5 j# i_data_e_rs2 [4:0] $end
$var wire 5 k# i_data_m_rd [4:0] $end
$var wire 5 l# i_data_w_rd [4:0] $end
$var wire 1 7 o_data_f_stall $end
$var wire 1 6 o_data_fd_flush $end
$var wire 1 5 o_data_fd_stall $end
$var wire 1 ? o_de_flush $end
$var reg 1 m# _stall $end
$var reg 2 n# o_data_mux_alu_forward_src_a [1:0] $end
$var reg 2 o# o_data_mux_alu_forward_src_b [1:0] $end
$upscope $end
$upscope $end
$scope begin $ivl_for_loop0 $end
$var integer 32 p# i [31:0] $end
$upscope $end
$upscope $end
$enddefinitions $end
#0
$dumpvars
b0 p#
b0 o#
b0 n#
0m#
bx l#
bx k#
bx j#
bx i#
bx h#
bx g#
bx f#
bx e#
bx d#
xc#
bx b#
bx a#
bx `#
bx _#
bx ^#
bx ]#
bx \#
bx [#
bx Z#
bx Y#
bx X#
bx W#
b100000000000 V#
bx U#
bx T#
bx S#
bx R#
bx Q#
bx P#
bx O#
bx N#
bx M#
bx L#
bx K#
b1111111 J#
b1111111 I#
bx H#
bx G#
bx F#
bx E#
bx D#
bx C#
bx B#
bx A#
bx @#
bx ?#
b0 >#
bx =#
bx <#
bx ;#
bx :#
bx 9#
b0 8#
bx 7#
bx 6#
bx 5#
bx 4#
bx 3#
bx 2#
bx 1#
bx 0#
bx /#
bx .#
bx -#
bx ,#
bx +#
bx *#
bx )#
x(#
x'#
x&#
x%#
x$#
bx ##
x"#
bx !#
bx ~"
bx }"
bx |"
b0 {"
b0 z"
bx y"
bx x"
bx w"
bx v"
bx u"
bx t"
bx s"
bx r"
bx q"
bx p"
bx o"
bx n"
bx m"
b100000 l"
bx k"
bx j"
bx i"
bx h"
bx g"
bx f"
bx e"
bx d"
bx c"
bx b"
bx a"
bx `"
bx _"
bx ^"
bx ]"
bx \"
bx ["
bx Z"
bx Y"
bx X"
bx W"
bx V"
bx U"
bx T"
bx S"
bx R"
bx Q"
bx P"
bx O"
bx N"
bx M"
bx L"
bx K"
bx J"
bx I"
bx H"
bx G"
bx F"
bx E"
bx D"
bx C"
bx B"
bx A"
bx @"
bx ?"
bx >"
b0 ="
b0 <"
bx ;"
bx :"
bx 9"
bx 8"
bx 7"
bx 6"
bx 5"
bx 4"
bx 3"
bx 2"
bx 1"
bx 0"
bx /"
bx ."
bx -"
bx ,"
1+"
1*"
bx )"
bx ("
bx '"
b0xxxxxx0xx00xx &"
bx %"
bx $"
bx #"
bx ""
bx !"
bx ~
bx }
bx |
bx {
xz
xy
bx x
bx w
bx v
bx u
bx t
bx s
bx r
0q
bx p
xo
xn
xm
xl
bx k
bx j
xi
bx h
bx g
xf
xe
xd
bx c
bx b
xa
bx `
x_
x^
x]
x\
bx [
bx Z
0Y
0X
0W
xV
0U
bx T
xS
xR
bx Q
xP
bx O
bx N
bx M
bx L
bx K
bx J
bx I
bx H
bx G
bx F
bx E
bx D
xC
xB
bx A
bx @
x?
bx >
bx =
bx <
bx ;
x:
x9
x8
07
x6
05
bx 4
x3
x2
bx 1
bx 0
bx /
b0 .
b0 -
x,
x+
bx *
bx )
x(
x'
bx &
x%
bx $
1#
b0 "
1!
$end
#10
b100000 p#
b1 "
0!
#20
0?
06
0c#
0'
0a
0\
0]
0^
b100000 p#
b10 "
1!
#30
b100000 p#
b11 "
0!
#40
0:
0d
02
0e
b100000 p#
b100 "
1!
#50
b1000010100000100110011 @"
b1000010100000100110011 E#
b1000010100000100110011 H#
b100 >"
b100 D#
b0 ?"
b0 F#
b0 G#
b100000 p#
b101 "
0!
0#
#60
b100 Z
b100 u
b100 }
1W
0C
0S
0B
0R
b0 Q
b0 s
b0 #"
b10 x
b10 |
b10 %"
1z
b1xxxx000000010 &"
1V
b0 T
b0 t
b0 ~
0y
b110011 &
b110011 M
b110011 v
b110011 ""
b110011 8"
b100 F
b100 4
b100 N
b100 w
b100 {
b100 !"
b100 9"
03
b10 A
b10 /"
b10 f#
b10 D"
b10 @
b10 0"
b10 g#
b10 C"
b10 G"
b10 f"
b10 g"
b100001010000010 c"
b100 K"
b0 J"
b1000010100000100110011 I"
b1000010100000100110011 \"
0%
09
0i
b100000 p#
b110 "
1!
#70
b100000 p#
b111 "
0!
#80
b0 A"
b0 t"
b0 |"
b0 4#
b0 =#
b0 !#
b0 ,#
b0 0#
b0 u"
b0 B#
b0 }"
b0 1#
b0 :#
b0 A#
b10 =
b10 1"
b10 h#
b10 O"
b10 ;
b10 3"
b10 j#
b10 Q"
b10 <
b10 2"
b10 i#
b10 P"
b100 N"
b0 M"
b0 q"
b0 /#
b0 @#
b0 ("
b0 s"
b0 ;#
b0 E"
b0 _"
b0 k"
b0 '"
b0 r"
b0 5#
b0 F"
b0 `"
b0 j"
b100000 p#
b1000 "
1!
#90
b100000 p#
b1001 "
0!
#100
b0 T"
b0 M#
b0 Q#
b100 U"
b10 0
b10 4"
b10 k#
b10 V"
b100000 p#
b1010 "
1!
#110
b100000 p#
b1011 "
0!
#120
b100 Z"
b100 [#
b100 _#
b10 $
b10 5"
b10 l#
b10 ["
b10 ^"
b10 h"
b100000 p#
b1100 "
1!
#130
b100000 p#
b1101 "
0!
#140
b100000 p#
b1110 "
1!
#150
b100000 p#
b1111 "
0!
1#
#160
0m
0o
0n
0'#
0"#
b0 )#
b0 -#
0&#
0$#
0%#
1l
b1 D
b1 O
b1 p
b1 :"
b1 x"
b1 *#
1(#
b0 B"
b0 w"
b0 .#
b0 ~"
b0 +#
b0 3#
b1000000000000010000000100010011 @"
b1000000000000010000000100010011 E#
b1000000000000010000000100010011 H#
b100 `
b100 k
1_
b0 b
b100 E
b100 G
b100 [
b100 )"
b100 m"
b100 ##
b0 >
b0 H
b0 d#
b0 c
0+
0,
1^
b1000 >"
b1000 D#
b100 ?"
b100 F#
b100 G#
b100000 p#
b10000 "
1!
#170
b100000 p#
b10001 "
0!
#180
b10000000000 H"
b10000000000 a"
b10000000000 e"
b0 )
b0 L
b0 r
b0 $"
b0 ."
b0 ]"
b0 d"
1B
1R
0z
b1000x010000010 &"
0V
0y
b0 Z
b0 u
b0 }
b10011 &
b10011 M
b10011 v
b10011 ""
b10011 8"
b0 F
b0 4
b0 N
b0 w
b0 {
b0 !"
b0 9"
13
b0 @
b0 0"
b0 g#
b0 C"
b0 g"
b100000000000001000000010 c"
b0 ;"
b0 N#
b0 U#
b10 -
b10 <"
b10 z"
b10 >#
b10 o#
b10 .
b10 ="
b10 {"
b10 8#
b10 n#
b10000000010000010000010011 @"
b10000000010000010000010011 E#
b10000000010000010000010011 H#
b11 R#
b10 S#
b1 T#
b0 R"
b0 o"
b0 6#
b0 <#
b0 K#
b0 O#
b1000 K"
b100 J"
b1000000000000010000000100010011 I"
b1000000000000010000000100010011 \"
18
1f
b0 /
b0 J
b0 ,"
b0 L#
b0 P#
b0 g
b0 1
b0 I
b0 e#
b0 h
12
1e
b1100 >"
b1100 D#
b1000 ?"
b1000 F#
b1000 G#
b100000 p#
b10010 "
1!
#190
b100000 p#
b10011 "
0!
#200
0l
1$#
b0 D
b0 O
b0 p
b0 :"
b0 x"
b0 *#
0(#
b10000000000 B"
b10000000000 w"
b10000000000 .#
b100000 H"
b100000 a"
b100000 e"
b10000000000 )#
b10000000000 -#
b0x00 u"
b0x00 B#
03
b1000 G"
b1000000001000001000 c"
b0 6"
b0 b"
b0 i"
b0 y"
b0 9#
b0 ?#
b0 \#
b0 b#
b0 -
b0 <"
b0 z"
b0 >#
b0 o#
b10000000000 ~"
b10000000000 +#
b10000000000 3#
b11110110111 @"
b11110110111 E#
b11110110111 H#
b0 W"
b0 W#
b0 ]#
b0 Y"
b0 Y#
b0 ^#
b0 ;
b0 3"
b0 j#
b0 Q"
b1000 N"
b100 M"
b100 q"
b100 /#
b100 @#
bx 7"
bx v"
bx C#
b10000000000 L"
b10000000000 n"
b10000000000 2#
b1100 K"
b1000 J"
b10000000010000010000010011 I"
b10000000010000010000010011 \"
b0 *
b0 K
b0 -"
b0 Z#
b0 a#
b0 j
1%
19
1i
b0 `
b0 k
0_
b0 E
b0 G
b0 [
b0 )"
b0 m"
b0 ##
1+
b10000 >"
b10000 D#
b1100 ?"
b1100 F#
b1100 G#
b100000 p#
b10100 "
1!
#210
b100000 p#
b10101 "
0!
#220
bx Z
bx u
bx }
b10000100000 B"
b10000100000 w"
b10000100000 .#
b100 )
b100 L
b100 r
b100 $"
b100 ."
b100 ]"
b100 d"
xC
xS
xB
xR
b11 Q
b11 s
b11 #"
bx x
bx |
bx %"
b10000000000 !#
b10000000000 ,#
b10000000000 0#
b10000100000 )#
b100000 -#
1z
b1100xxx01100xx &"
b0 H"
b0 a"
b0 e"
b10000000000 }"
b10000000000 1#
b10000000000 :#
b10000000000 A#
b0x000000x000 u"
b0x000000x000 B#
b100000 ~"
b100000 +#
b100000 3#
b110111 &
b110111 M
b110111 v
b110111 ""
b110111 8"
b0 A
b0 /"
b0 f#
b0 D"
b1111 G"
b0 f"
b1111 c"
b11111111111101111000011110010011 @"
b11111111111101111000011110010011 E#
b11111111111101111000011110010011 H#
b10000000000 S"
b10000000000 p"
b10000000000 7#
b10000000011 R#
b10000000010 S#
b10000000001 T#
b10000000000 R"
b10000000000 o"
b10000000000 6#
b10000000000 <#
b10000000000 K#
b10000000000 O#
b1000 U"
b1000 =
b1000 1"
b1000 h#
b1000 O"
b1100 N"
b1000 M"
b1000 q"
b1000 /#
b1000 @#
b100000 L"
b100000 n"
b100000 2#
b10000 K"
b1100 J"
b11110110111 I"
b11110110111 \"
08
0f
b10100 >"
b10100 D#
b10000 ?"
b10000 F#
b10000 G#
b100000 p#
b10110 "
1!
#230
b100000 p#
b10111 "
0!
#240
xm
xo
b0 Z
b0 u
b0 }
xn
x'#
x"#
b0 )
b0 L
b0 r
b0 $"
b0 ."
b0 ]"
b0 d"
0C
0S
1B
1R
b0 Q
b0 s
b0 #"
b10 x
b10 |
b10 %"
x&#
x$#
x%#
0z
b1000x010000010 &"
0y
b11111111111111111111111111111111 H"
b11111111111111111111111111111111 a"
b11111111111111111111111111111111 e"
xl
bx -#
b10000000000 6"
b10000000000 b"
b10000000000 i"
b10000000000 y"
b10000000000 9#
b10000000000 ?#
b10000000000 \#
b10000000000 b#
b0 }"
b0 1#
b0 :#
b0 A#
b0 .
b0 ="
b0 {"
b0 8#
b0 n#
b0xx00 u"
b0xx00 B#
b10011 &
b10011 M
b10011 v
b10011 ""
b10011 8"
13
b1111 A
b1111 /"
b1111 f#
b1111 D"
b11111 @
b11111 0"
b11111 g#
b11111 C"
b1111 f"
b11111 g"
b1111111111110111100001111 c"
bx D
bx O
bx p
bx :"
bx x"
bx *#
x(#
bx B"
bx w"
bx .#
b0 ~"
b0 +#
b0 3#
bx )#
b0xx00 !#
b0xx00 ,#
b0xx00 0#
b11111110111101000010011000100011 @"
b11111110111101000010011000100011 E#
b11111110111101000010011000100011 H#
b10000000000 X"
b10000000000 X#
b10000000000 `#
b1000 Z"
b1000 [#
b1000 _#
b10000000000 W"
b10000000000 W#
b10000000000 ]#
b100000 S"
b100000 p"
b100000 7#
b10000100011 R#
b10000100010 S#
b10000100001 T#
b10000100000 R"
b10000100000 o"
b10000100000 6#
b10000100000 <#
b10000100000 K#
b10000100000 O#
b1100 U"
b1000 0
b1000 4"
b1000 k#
b1000 V"
b1111 =
b1111 1"
b1111 h#
b1111 O"
b0 <
b0 2"
b0 i#
b0 P"
b10000 N"
b1100 M"
b1100 q"
b1100 /#
b1100 @#
b0 L"
b0 n"
b0 2#
b10100 K"
b10000 J"
b11111111111101111000011110010011 I"
b11111111111101111000011110010011 \"
bx E
bx G
bx [
bx )"
bx m"
bx ##
b11 >
b11 H
b11 d#
b11 c
x+
x,
b11000 >"
b11000 D#
b10100 ?"
b10100 F#
b10100 G#
b100000 p#
b11000 "
1!
#250
b100000 p#
b11001 "
0!
